%!PS-Adobe-3.0 EPSF-3.0
%%Creator: cairo 1.14.1 (http://cairographics.org)
%%CreationDate: Tue Aug 11 10:57:30 2015
%%Pages: 1
%%DocumentData: Clean7Bit
%%LanguageLevel: 2
%%BoundingBox: 0 -1 1248 630
%%EndComments
%%BeginProlog
save
50 dict begin
/q { gsave } bind def
/Q { grestore } bind def
/cm { 6 array astore concat } bind def
/w { setlinewidth } bind def
/J { setlinecap } bind def
/j { setlinejoin } bind def
/M { setmiterlimit } bind def
/d { setdash } bind def
/m { moveto } bind def
/l { lineto } bind def
/c { curveto } bind def
/h { closepath } bind def
/re { exch dup neg 3 1 roll 5 3 roll moveto 0 rlineto
      0 exch rlineto 0 rlineto closepath } bind def
/S { stroke } bind def
/f { fill } bind def
/f* { eofill } bind def
/n { newpath } bind def
/W { clip } bind def
/W* { eoclip } bind def
/BT { } bind def
/ET { } bind def
/pdfmark where { pop globaldict /?pdfmark /exec load put }
    { globaldict begin /?pdfmark /pop load def /pdfmark
    /cleartomark load def end } ifelse
/BDC { mark 3 1 roll /BDC pdfmark } bind def
/EMC { mark /EMC pdfmark } bind def
/cairo_store_point { /cairo_point_y exch def /cairo_point_x exch def } def
/Tj { show currentpoint cairo_store_point } bind def
/TJ {
  {
    dup
    type /stringtype eq
    { show } { -0.001 mul 0 cairo_font_matrix dtransform rmoveto } ifelse
  } forall
  currentpoint cairo_store_point
} bind def
/cairo_selectfont { cairo_font_matrix aload pop pop pop 0 0 6 array astore
    cairo_font exch selectfont cairo_point_x cairo_point_y moveto } bind def
/Tf { pop /cairo_font exch def /cairo_font_matrix where
      { pop cairo_selectfont } if } bind def
/Td { matrix translate cairo_font_matrix matrix concatmatrix dup
      /cairo_font_matrix exch def dup 4 get exch 5 get cairo_store_point
      /cairo_font where { pop cairo_selectfont } if } bind def
/Tm { 2 copy 8 2 roll 6 array astore /cairo_font_matrix exch def
      cairo_store_point /cairo_font where { pop cairo_selectfont } if } bind def
/g { setgray } bind def
/rg { setrgbcolor } bind def
/d1 { setcachedevice } bind def
%%EndProlog
%%BeginSetup
%%EndSetup
%%Page: 1 1
%%BeginPageSetup
%%PageBoundingBox: 0 -1 1248 630
%%EndPageSetup
q 0 -1 1248 631 rectclip q
0 g
4.799998 w
0 J
0 j
[] 0.0 d
4 M q 1 0 0 -1 0 629.333801 cm
295.902 276.625 m 1091.328 276.625 l S Q
1102.406 352.709 m 1085.801 343.107 l 1085.801 362.306 l h
1102.406 352.709 m f*
2.399999 w
q 1 0 0 -1 0 629.333801 cm
1102.406 276.625 m 1085.801 286.227 l 1085.801 267.027 l h
1102.406 276.625 m S Q
4.799998 w
q 1 0 0 -1 0 629.333801 cm
295.902 275.027 m 295.902 540.168 l S Q
295.902 78.088 m 286.301 94.693 l 305.5 94.693 l h
295.902 78.088 m f*
2.399999 w
q 0 -1 -1 0 0 629.333801 cm
551.246 -295.902 m 534.641 -286.301 l 534.641 -305.5 l h
551.246 -295.902 m S Q
4.8 w
q 1 0 0 -1 0 629.333801 cm
294.07 277.313 m 56.359 425.883 l S Q
46.965 197.58 m 55.961 214.521 l 66.137 198.24 l h
46.965 197.58 m f*
2.035196 w
q -1 -0.625 -0.625 1 0 629.333801 cm
160.274 -331.583 m 146.191 -323.443 l 146.191 -339.724 l h
160.274 -331.583 m S Q
4.8 w
q 1 0 0 -1 0 629.333801 cm
449.5 383.367 m 812.93 1.656 l S Q
q 1 0 0 -1 0 629.333801 cm
451.785 627.484 m 815.215 245.77 l S Q
q 1 0 0 -1 0 629.333801 cm
449.5 380.168 m 451.785 629.313 l S Q
q 1 0 0 -1 0 629.333801 cm
810.645 3.027 m 812.93 252.168 l S Q
0 0 1 rg
4.799998 w
q 1 0 0 -1 0 629.333801 cm
828.699 583.824 m 804.996 573.52 l 783.066 587.207 l 785.543 561.477 l 
765.75 544.852 l 790.984 539.254 l 800.684 515.293 l 813.801 537.566 l 839.586
 539.383 l 822.461 558.742 l h
828.699 583.824 m S Q
q 1 0 0 -1 0 629.333801 cm
531.785 400.742 m 516.832 404.734 l 511.645 419.32 l 503.223 406.332 l 
487.75 405.906 l 497.5 393.883 l 493.125 379.035 l 507.57 384.594 l 520.34
 375.844 l 519.52 391.301 l h
531.785 400.742 m S Q
0 g
4.8 w
q 1 0 0 -1 0 629.333801 cm
296.359 279.598 m 753.5 537.883 l S Q
763.145 86.002 m 743.965 85.814 l 753.41 102.529 l h
763.145 86.002 m f*
2.089545 w
q 1 -0.565 -0.565 -1 0 629.333801 cm
811.179 85.016 m 796.72 93.373 l 796.721 76.657 l h
811.179 85.016 m S Q
20.742 185.998 m 20.785 186.178 l 20.84 186.381 l 20.895 186.599 l 20.949
 186.846 l 21.031 187.103 l 21.113 187.392 l 21.195 187.689 l 21.289 187.99
 l 21.398 188.306 l 21.52 188.635 l 21.656 188.974 l 21.793 189.303 l 21.945
 189.642 l 22.109 189.982 l 22.285 190.326 l 22.477 190.666 l 22.68 190.994
 l 22.887 191.322 l 23.117 191.635 l 23.609 192.236 l 23.883 192.51 l 24.168
 192.767 l 24.469 193.013 l 24.781 193.232 l 25.125 193.424 l 25.289 193.517
 l 25.465 193.599 l 25.656 193.67 l 25.832 193.736 l 26.023 193.806 l 26.215
 193.861 l 26.422 193.9 l 26.625 193.943 l 26.828 193.971 l 27.047 193.998
 l 27.266 194.01 l 27.484 194.01 l 27.824 194.01 29.449 194.01 30.867 193.135
 c 28.973 192.795 27.609 191.088 27.609 189.467 c 27.609 188.388 28.359 
187.076 30.188 187.076 c 31.688 187.076 33.859 188.291 33.859 191.021 c 
33.859 194.568 29.844 195.498 27.539 195.498 c 23.594 195.498 21.207 191.896
 20.402 190.338 c 18.695 194.814 15.023 195.498 13.074 195.498 c 5.992 195.498
 2.102 186.736 2.102 185.029 c 2.102 184.349 2.785 184.349 2.934 184.349
 c 3.465 184.349 3.684 184.498 3.809 185.099 c 6.113 192.303 10.617 194.01
 12.922 194.01 c 14.219 194.01 16.582 193.408 16.582 189.467 c 16.582 187.365
 15.434 182.791 12.922 173.279 c 11.832 169.064 9.457 166.213 6.453 166.213
 c 6.047 166.213 4.488 166.213 3.07 167.099 c 4.777 167.428 6.266 168.846
 6.266 170.767 c 6.266 172.599 4.777 173.131 3.754 173.131 c 1.707 173.131
 0 171.369 0 169.185 c 0 166.076 3.41 164.709 6.387 164.709 c 10.891 164.709
 13.32 169.474 13.539 169.869 c 14.344 167.357 16.801 164.709 20.867 164.709
 c 27.879 164.709 31.77 173.471 31.77 175.178 c 31.77 175.861 31.156 175.861
 30.938 175.861 c 30.336 175.861 30.188 175.588 30.063 175.123 c 27.824 
167.849 23.199 166.213 21.016 166.213 c 18.355 166.213 17.262 168.381 17.262
 170.701 c 17.262 172.201 17.672 173.689 18.438 176.678 c h
20.742 185.998 m f*
57.684 173.525 m 57.52 173.486 l 57.371 173.459 l 57.223 173.416 l 57.086
 173.361 l 56.949 173.322 l 56.813 173.267 l 56.688 173.197 l 56.566 173.131
 l 56.457 173.06 l 56.348 172.994 l 56.254 172.912 l 56.156 172.83 l 56.063
 172.748 l 55.98 172.654 l 55.898 172.572 l 55.816 172.474 l 55.746 172.381
 l 55.68 172.283 l 55.625 172.189 l 55.57 172.08 l 55.516 171.982 l 55.461
 171.873 l 55.418 171.779 l 55.391 171.67 l 55.352 171.576 l 55.297 171.357
 l 55.281 171.26 l 55.27 171.15 l 55.254 171.056 l 55.254 170.849 l 55.254
 169.568 56.254 169.103 57.098 169.103 c 58.148 169.103 59.813 169.853 59.813
 172.135 c 59.813 175.369 56.102 176.267 53.551 176.267 c 46.398 176.267
 39.793 169.717 39.793 163.115 c 39.793 159.017 42.645 154.842 48.598 154.842
 c 56.633 154.842 60.387 159.537 60.387 160.221 c 60.387 160.494 59.965 
161.025 59.582 161.025 c 59.297 161.025 59.199 160.916 58.805 160.533 c 
55.105 156.166 49.539 156.166 48.68 156.166 c 45.266 156.166 43.738 158.486
 43.738 161.447 c 43.738 162.814 44.422 167.998 46.891 171.275 c 48.68 173.623
 51.16 174.943 53.551 174.943 c 54.203 174.943 56.484 174.865 57.684 173.525
 c h
57.684 173.525 m f*
305.375 65.646 m 305.387 65.701 l 305.398 65.744 l 305.414 65.826 l 305.441
 65.892 l 305.453 65.974 l 305.469 66.045 l 305.496 66.099 l 305.508 66.166
 l 305.523 66.221 l 305.535 66.275 l 305.535 66.33 l 305.551 66.385 l 305.563
 66.439 l 305.578 66.482 l 305.578 66.521 l 305.59 66.56 l 305.59 66.603
 l 305.605 66.642 l 305.605 66.685 l 305.617 66.752 l 305.617 66.971 l 305.633
 67.041 l 305.633 67.205 l 305.633 68.447 304.691 69.045 303.668 69.045 
c 302.984 69.045 301.895 68.635 301.277 67.611 c 301.141 67.271 300.598 
65.185 300.336 63.943 c 299.848 62.181 299.383 60.338 298.973 58.51 c 295.902
 46.271 l 295.645 45.244 292.723 40.498 288.234 40.498 c 284.766 40.498 
284.004 43.471 284.004 45.998 c 284.004 49.123 285.176 53.353 287.48 59.314
 c 288.574 62.115 288.848 62.865 288.848 64.228 c 288.848 67.271 286.676
 69.783 283.266 69.783 c 276.797 69.783 274.285 59.943 274.285 59.314 c 
274.285 58.635 274.969 58.635 275.117 58.635 c 275.801 58.635 275.855 58.783
 276.195 59.877 c 278.039 66.275 280.742 68.295 283.063 68.295 c 283.605
 68.295 284.766 68.295 284.766 66.127 c 284.766 64.42 284.086 62.674 283.605
 61.361 c 280.891 54.158 279.648 50.283 279.648 47.076 c 279.648 41.041 
283.949 38.994 287.945 38.994 c 290.621 38.994 292.914 40.154 294.809 42.053
 c 293.938 38.533 293.133 35.189 290.402 31.572 c 288.629 29.279 286.051
 27.287 282.926 27.287 c 281.984 27.287 278.91 27.506 277.754 30.154 c 278.844
 30.154 279.746 30.154 280.672 30.986 c 281.355 31.572 282.035 32.474 282.035
 33.756 c 282.035 35.869 280.207 36.142 279.527 36.142 c 277.969 36.142 
275.703 35.053 275.703 31.721 c 275.703 28.31 278.723 25.799 282.926 25.799
 c 289.938 25.799 296.926 32.01 298.852 39.678 c h
305.375 65.646 m f*
326.566 47.81 m 326.402 47.771 l 326.254 47.744 l 326.102 47.701 l 325.965
 47.646 l 325.828 47.607 l 325.691 47.553 l 325.57 47.482 l 325.449 47.416
 l 325.34 47.349 l 325.23 47.279 l 325.133 47.197 l 325.039 47.115 l 324.941
 47.033 l 324.859 46.939 l 324.777 46.857 l 324.695 46.76 l 324.629 46.666
 l 324.559 46.568 l 324.508 46.474 l 324.438 46.365 l 324.398 46.271 l 324.344
 46.162 l 324.301 46.064 l 324.262 45.955 l 324.234 45.861 l 324.18 45.642
 l 324.164 45.545 l 324.152 45.435 l 324.137 45.342 l 324.137 45.232 l 324.125
 45.138 l 324.125 43.853 325.133 43.388 325.98 43.388 c 327.031 43.388 328.695
 44.142 328.695 46.42 c 328.695 49.654 324.984 50.553 322.418 50.553 c 315.281
 50.553 308.676 44.006 308.676 37.4 c 308.676 33.306 311.527 29.131 317.477
 29.131 c 325.516 29.131 329.27 33.822 329.27 34.506 c 329.27 34.779 328.844
 35.31 328.465 35.31 c 328.176 35.31 328.082 35.201 327.688 34.818 c 323.988
 30.451 318.418 30.451 317.559 30.451 c 314.148 30.451 312.621 32.771 312.621
 35.732 c 312.621 37.099 313.301 42.283 315.773 45.56 c 317.559 47.908 320.031
 49.232 322.418 49.232 c 323.086 49.232 325.367 49.15 326.566 47.81 c h
326.566 47.81 m f*
486.98 425.787 m 492.82 425.787 l 494.188 425.787 494.867 425.787 494.867
 427.154 c 494.867 427.904 494.188 427.904 493.039 427.904 c 487.391 427.904
 l 488.809 435.67 l 489.098 437.088 490.051 441.904 490.461 442.724 c 491.074
 444.021 492.223 445.045 493.656 445.045 c 493.914 445.045 495.688 445.045
 496.984 443.803 c 493.996 443.556 493.313 441.166 493.313 440.142 c 493.313
 438.588 494.527 437.771 495.84 437.771 c 497.598 437.771 499.563 439.271
 499.563 441.849 c 499.563 444.974 496.426 446.529 493.656 446.529 c 491.336
 446.529 487.051 445.318 485.016 438.588 c 484.621 437.154 484.402 436.474
 482.777 427.904 c 478.098 427.904 l 476.785 427.904 476.051 427.904 476.051
 426.619 c 476.051 425.787 476.664 425.787 477.945 425.787 c 482.438 425.787
 l 477.32 398.943 l 476.105 392.353 474.957 386.142 471.41 386.142 c 471.137
 386.142 469.457 386.142 468.148 387.385 c 471.289 387.576 471.887 390.033
 471.887 391.056 c 471.887 392.611 470.672 393.443 469.363 393.443 c 467.602
 393.443 465.637 391.943 465.637 389.349 c 465.637 386.295 468.625 384.658
 471.41 384.658 c 475.148 384.658 477.879 388.67 479.094 391.26 c 481.262
 395.545 482.848 403.763 482.914 404.252 c h
486.98 425.787 m f*
1146.414 383.978 m 1146.43 384.033 l 1146.441 384.088 l 1146.457 384.142
 l 1146.484 384.197 l 1146.496 384.252 l 1146.512 384.318 l 1146.523 384.373
 l 1146.539 384.439 l 1146.551 384.494 l 1146.566 384.564 l 1146.578 384.631
 l 1146.59 384.701 l 1146.605 384.767 l 1146.605 384.959 l 1146.617 385.002
 l 1146.617 385.615 1146.277 385.615 1144.926 385.615 c 1116.227 385.615
 l 1114.605 385.615 1114.523 385.545 1114.113 384.252 c 1110.387 372.01 
l 1110.238 371.67 1110.168 371.205 1110.168 371.053 c 1110.168 370.986 1110.168
 370.303 1111 370.303 c 1111.602 370.303 1111.75 370.795 1111.875 370.986
 c 1114.453 379.025 1118 383.498 1128.59 383.498 c 1139.688 383.498 l 1101.68
 341.002 l 1101.68 340.947 1101.406 339.978 1101.406 339.791 c 1101.406 
339.174 1101.871 339.174 1103.113 339.174 c 1132.688 339.174 l 1134.309 
339.174 1134.379 339.244 1134.801 340.541 c 1139.617 355.553 l 1139.688 
355.822 1139.891 356.314 1139.891 356.576 c 1139.891 356.916 1139.617 357.326
 1139.004 357.326 c 1138.402 357.326 1138.32 357.064 1137.844 355.635 c 
1134.871 346.381 1131.609 341.482 1120.047 341.482 c 1108.406 341.482 l 
h
1146.414 383.978 m f*
1147.371 323.221 m 1147.344 323.099 l 1147.316 322.99 l 1147.289 322.865
 l 1147.262 322.771 l 1147.234 322.662 l 1147.191 322.568 l 1147.164 322.471
 l 1147.109 322.306 l 1147.07 322.24 l 1147.027 322.158 l 1146.988 322.088
 l 1146.945 322.033 l 1146.906 321.967 l 1146.852 321.912 l 1146.797 321.869
 l 1146.742 321.814 l 1146.672 321.775 l 1146.605 321.736 l 1146.523 321.709
 l 1146.457 321.666 l 1146.359 321.638 l 1146.266 321.627 l 1146.168 321.599
 l 1146.059 321.572 l 1145.992 321.572 l 1145.938 321.556 l 1145.867 321.556
 l 1145.813 321.545 l 1145.676 321.545 l 1145.609 321.529 l 1145.379 321.529
 l 1145.297 321.517 l 1145.051 321.517 l 1144.422 321.517 1143.766 321.517
 1143.766 320.521 c 1143.766 319.986 1144.191 319.795 1144.422 319.795 c
 1145.664 319.795 1147.246 319.986 1148.516 319.986 c 1150.141 319.986 1151.926
 319.795 1153.512 319.795 c 1153.934 319.795 1154.465 319.947 1154.465 320.834
 c 1154.465 321.517 1153.785 321.517 1153.238 321.517 c 1152.172 321.517
 1150.891 321.517 1150.891 322.076 c 1150.891 322.334 1151.23 323.564 1151.422
 324.271 c 1151.996 326.783 1152.652 329.361 1153.168 331.342 c 1153.742
 330.412 1155.215 328.556 1158.07 328.556 c 1158.07 329.881 l 1154.699 329.881
 1153.852 333.537 1153.852 334.017 c 1153.852 334.209 1153.934 334.549 1153.977
 334.74 c 1156.363 344.291 l 1159.121 347.963 1161.508 348.658 1163.023 
348.658 c 1164.879 348.658 1166.504 347.279 1166.504 344.06 c 1166.504 342.096
 1165.453 337.252 1164.02 334.482 c 1162.832 332.162 1160.496 329.881 1158.07
 329.881 c 1158.07 328.556 l 1163.867 328.556 1170.297 334.971 1170.297 
342.053 c 1170.297 347.623 1166.434 349.982 1163.172 349.982 c 1160.211 
349.982 1157.688 348.006 1156.402 346.654 c 1155.598 349.369 1152.938 349.982
 1151.504 349.982 c 1149.648 349.982 1148.516 348.74 1147.75 347.471 c 1146.797
 345.849 1146.047 343.01 1146.047 342.709 c 1146.047 342.096 1146.715 342.096
 1146.852 342.096 c 1147.52 342.096 1147.563 342.244 1147.902 343.529 c 
1148.613 346.299 1149.527 348.658 1151.383 348.658 c 1152.609 348.658 1152.938
 347.623 1152.938 346.338 c 1152.938 345.806 1152.855 345.193 1152.789 344.908
 c h
1147.371 323.221 m f*
1186.699 360.599 m 1186.699 360.627 l 1186.715 360.642 l 1186.715 360.67
 l 1186.727 360.681 l 1186.727 360.697 l 1186.742 360.724 l 1186.742 360.752
 l 1186.754 360.779 l 1186.754 360.806 l 1186.77 360.834 l 1186.77 360.861
 l 1186.781 360.9 l 1186.797 360.928 l 1186.809 360.998 l 1186.824 361.053
 l 1186.836 361.092 l 1186.836 361.119 l 1186.852 361.146 l 1186.852 361.174
 l 1186.863 361.201 l 1186.863 361.256 l 1186.879 361.267 l 1186.879 361.322
 l 1186.891 361.322 l 1186.891 361.349 l 1186.891 361.611 1186.699 362.033
 1186.113 362.033 c 1185.184 362.033 1181.242 361.65 1180.039 361.541 c 
1179.656 361.502 1179.004 361.459 1179.004 360.451 c 1179.004 359.795 1179.656
 359.795 1180.23 359.795 c 1182.512 359.795 1182.512 359.455 1182.512 359.072
 c 1182.512 358.744 1182.414 358.443 1182.32 358.021 c 1175.605 331.111 
l 1175.371 330.263 1175.371 330.181 1175.371 330.072 c 1175.371 329.361 
1175.945 328.556 1176.996 328.556 c 1177.527 328.556 1178.418 328.791 1178.949
 329.787 c 1179.086 330.072 1179.508 331.779 1179.738 332.775 c 1180.859
 337.017 l 1180.98 337.728 1181.473 339.529 1181.598 340.24 c 1182.086 342.053
 1182.086 342.096 1183.027 343.623 c 1184.559 345.959 1186.934 348.658 1190.645
 348.658 c 1193.305 348.658 1193.453 346.463 1193.453 345.33 c 1193.453 
342.478 1191.406 337.209 1190.645 335.205 c 1190.125 333.865 1189.934 333.443
 1189.934 332.623 c 1189.934 330.115 1192.023 328.556 1194.438 328.556 c
 1199.215 328.556 1201.301 335.096 1201.301 335.83 c 1201.301 336.447 1200.688
 336.447 1200.539 336.447 c 1199.867 336.447 1199.813 336.174 1199.637 335.638
 c 1198.531 331.834 1196.445 329.881 1194.586 329.881 c 1193.578 329.881
 1193.387 330.537 1193.387 331.545 c 1193.387 332.623 1193.645 333.252 1194.504
 335.396 c 1195.051 336.869 1197.016 341.904 1197.016 344.564 c 1197.016
 345.33 1197.016 347.334 1195.242 348.701 c 1194.438 349.33 1193.074 349.982
 1190.836 349.982 c 1187.355 349.982 1184.844 348.088 1183.098 346.041 c
 h
1186.699 360.599 m f*
872.078 48.455 m 883.504 63.494 l 884.254 64.42 884.32 64.49 886.711 64.709
 c 888.332 64.9 888.73 64.9 890.652 64.9 c 892.617 64.9 l 892.617 68.092
 l 889.754 67.9 886.422 67.9 883.504 67.9 c 880.867 67.9 875.613 67.9 873.172
 68.092 c 873.172 64.9 l 874.398 64.9 877.047 64.9 879.438 64.146 c 879.355
 64.025 879.027 63.615 878.875 63.396 c 869.91 51.498 l 860.18 64.9 l 865.828
 64.9 l 865.828 68.092 l 863.031 67.9 856.578 67.9 853.535 67.9 c 850.805
 67.9 844.895 67.9 842.508 68.092 c 842.508 64.9 l 849.18 64.9 l 864.273
 44.045 l 850.52 26.017 l 849.918 25.185 849.781 25.064 847.598 24.846 c
 846.262 24.721 844.828 24.654 843.461 24.654 c 841.484 24.654 l 841.484
 21.459 l 844.336 21.678 847.68 21.678 850.602 21.678 c 853.246 21.678 858.5
 21.678 860.93 21.459 c 860.93 24.654 l 859.715 24.654 857.07 24.654 854.68
 25.404 c 854.75 25.529 855.09 25.935 855.238 26.154 c 866.445 41.029 l 
878.262 24.654 l 872.641 24.654 l 872.641 21.459 l 875.422 21.678 881.863
 21.678 884.934 21.678 c 887.652 21.678 893.574 21.678 895.934 21.459 c 
895.934 24.654 l 889.289 24.654 l h
872.078 48.455 m f*
964.004 43.705 m 964.59 43.705 l 964.688 43.717 l 964.797 43.717 l 964.891
 43.732 l 964.988 43.744 l 965.082 43.76 l 965.18 43.771 l 965.273 43.787
 l 965.355 43.814 l 965.453 43.842 l 965.535 43.869 l 965.613 43.896 l 965.695
 43.935 l 965.777 43.978 l 965.848 44.033 l 965.914 44.072 l 966.039 44.197
 l 966.094 44.263 l 966.121 44.306 l 966.148 44.346 l 966.16 44.373 l 966.188
 44.416 l 966.203 44.455 l 966.215 44.51 l 966.242 44.553 l 966.258 44.607
 l 966.27 44.646 l 966.285 44.701 l 966.285 44.756 l 966.297 44.81 l 966.297
 44.865 l 966.313 44.92 l 966.313 45.041 l 966.313 46.408 965.016 46.408
 964.074 46.408 c 923.352 46.408 l 922.383 46.408 921.098 46.408 921.098
 45.041 c 921.098 43.705 922.383 43.705 923.406 43.705 c h
964.004 43.705 m f*
964.074 30.494 m 964.25 30.494 l 964.441 30.51 l 964.727 30.51 l 964.824
 30.521 l 964.918 30.537 l 965 30.537 l 965.098 30.549 l 965.191 30.576 
l 965.289 30.592 l 965.371 30.619 l 965.465 30.646 l 965.629 30.701 l 965.695
 30.74 l 965.777 30.783 l 965.848 30.838 l 965.914 30.892 l 965.984 30.943
 l 966.039 31.013 l 966.066 31.041 l 966.094 31.08 l 966.121 31.107 l 966.148
 31.15 l 966.16 31.189 l 966.188 31.232 l 966.203 31.271 l 966.215 31.314
 l 966.242 31.369 l 966.258 31.408 l 966.27 31.463 l 966.285 31.517 l 966.285
 31.572 l 966.297 31.627 l 966.297 31.681 l 966.313 31.736 l 966.313 31.861
 l 966.313 33.224 965.016 33.224 964.004 33.224 c 923.406 33.224 l 922.383
 33.224 921.098 33.224 921.098 31.861 c 921.098 30.494 922.383 30.494 923.352
 30.494 c h
964.074 30.494 m f*
1011.508 5.154 m 1011.508 5.221 l 1011.496 5.236 l 1011.496 5.275 l 1011.48
 5.303 l 1011.48 5.318 l 1011.469 5.346 l 1011.453 5.373 l 1011.441 5.4 
l 1011.426 5.424 l 1011.414 5.467 l 1011.387 5.494 l 1011.359 5.533 l 1011.332
 5.576 l 1011.305 5.615 l 1011.262 5.658 l 1011.223 5.713 l 1011.211 5.74
 l 1011.102 5.849 l 1011.074 5.888 l 1011.02 5.943 l 1010.992 5.986 l 1010.949
 6.013 l 1010.922 6.053 l 1010.883 6.096 l 1010.855 6.135 l 1010.648 6.342
 l 1010.609 6.396 l 1010.555 6.435 l 1010.512 6.49 l 1010.457 6.529 l 1010.348
 6.638 l 1001.859 15.209 999.691 28.053 999.691 38.451 c 999.691 50.283 
1002.27 62.127 1010.637 70.603 c 1011.508 71.435 1011.508 71.572 1011.508
 71.775 c 1011.508 72.256 1011.25 72.443 1010.84 72.443 c 1010.16 72.443
 1004.043 67.834 1000.031 59.209 c 996.551 51.717 995.746 44.17 995.746 
38.451 c 995.746 33.142 996.496 24.939 1000.223 17.244 c 1004.305 8.877 
1010.16 4.471 1010.84 4.471 c 1011.25 4.471 1011.508 4.662 1011.508 5.154
 c h
1011.508 5.154 m f*
1048.328 49.408 m 1042.637 62.931 l 1042.434 63.494 1042.297 63.74 1042.297
 63.806 c 1042.297 64.228 1043.457 65.513 1046.309 65.787 c 1046.992 65.853
 1047.672 65.924 1047.672 67.096 c 1047.672 67.9 1046.84 67.9 1046.648 67.9
 c 1043.852 67.9 1040.934 67.681 1038.078 67.681 c 1036.375 67.681 1032.172
 67.9 1030.465 67.9 c 1030.07 67.9 1029.223 67.9 1029.223 66.537 c 1029.223
 65.787 1029.906 65.787 1030.805 65.787 c 1034.887 65.787 1035.281 65.103
 1035.91 63.615 c 1043.922 44.635 l 1029.563 29.197 l 1028.703 28.447 l 
1025.375 24.846 1022.168 23.767 1018.699 23.576 c 1017.828 23.506 1017.199
 23.506 1017.199 22.213 c 1017.199 22.142 1017.199 21.459 1018.102 21.459
 c 1020.121 21.459 1022.359 21.678 1024.473 21.678 c 1027 21.678 1029.66
 21.459 1032.09 21.459 c 1032.512 21.459 1033.316 21.459 1033.316 22.826
 c 1033.316 23.506 1032.633 23.576 1032.512 23.576 c 1031.898 23.631 1029.781
 23.767 1029.781 25.678 c 1029.781 26.767 1030.805 27.861 1031.609 28.736
 c 1038.543 36.092 l 1044.672 42.736 l 1051.535 26.498 l 1051.809 25.744
 1051.875 25.678 1051.875 25.529 c 1051.875 24.994 1050.594 23.849 1047.934
 23.576 c 1047.184 23.506 1046.582 23.428 1046.582 22.267 c 1046.582 21.459
 1047.332 21.459 1047.59 21.459 c 1049.516 21.459 1054.266 21.678 1056.16
 21.678 c 1057.867 21.678 1062.004 21.459 1063.707 21.459 c 1064.188 21.459
 1065.004 21.459 1065.004 22.756 c 1065.004 23.576 1064.324 23.576 1063.777
 23.576 c 1059.23 23.631 1059.082 23.849 1057.938 26.553 c 1055.289 32.885
 1050.715 43.486 1049.176 47.553 c 1053.785 52.33 1060.91 60.424 1063.094
 62.318 c 1065.074 63.955 1067.652 65.58 1071.734 65.787 c 1072.621 65.853
 1073.219 65.853 1073.219 67.15 c 1073.219 67.217 1073.219 67.9 1072.348
 67.9 c 1070.301 67.9 1068.063 67.681 1065.945 67.681 c 1063.434 67.681 
1060.855 67.9 1058.398 67.9 c 1057.988 67.9 1057.117 67.9 1057.117 66.537
 c 1057.117 66.072 1057.457 65.853 1057.938 65.787 c 1058.551 65.732 1060.664
 65.58 1060.664 63.685 c 1060.664 62.717 1059.914 61.842 1059.355 61.228
 c h
1048.328 49.408 m f*
1087.141 21.529 m 1087.141 21.939 l 1087.113 22.349 l 1087.098 22.744 l
 1087.059 23.127 l 1087.016 23.494 l 1086.906 24.205 l 1086.84 24.529 l 
1086.758 24.857 l 1086.664 25.174 l 1086.566 25.474 l 1086.473 25.76 l 1086.348
 26.033 l 1086.227 26.291 l 1086.102 26.553 l 1085.965 26.783 l 1085.816
 27.002 l 1085.664 27.221 l 1085.504 27.412 l 1085.34 27.588 l 1085.16 27.763
 l 1084.984 27.916 l 1084.793 28.053 l 1084.586 28.189 l 1084.383 28.299
 l 1084.18 28.392 l 1083.961 28.474 l 1083.742 28.545 l 1083.508 28.599 
l 1083.277 28.638 l 1083.031 28.654 l 1082.785 28.666 l 1080.547 28.666 
1079.184 26.959 1079.184 25.064 c 1079.184 23.236 1080.547 21.459 1082.785
 21.459 c 1083.605 21.459 1084.492 21.732 1085.176 22.334 c 1085.367 22.482
 1085.449 22.553 1085.516 22.553 c 1085.586 22.553 1085.652 22.482 1085.652
 21.529 c 1085.652 16.494 1083.277 12.412 1081.012 10.174 c 1080.277 9.439
 1080.277 9.287 1080.277 9.096 c 1080.277 8.603 1080.617 8.346 1080.957 
8.346 c 1081.695 8.346 1087.141 13.572 1087.141 21.529 c h
1087.141 21.529 m f*
1144.059 60.135 m 1145.004 61.103 l 1147.051 63.15 1149.289 65.443 1153.914
 65.787 c 1154.664 65.853 1155.277 65.853 1155.277 67.096 c 1155.277 67.627
 1154.938 67.9 1154.391 67.9 c 1152.617 67.9 1150.652 67.681 1148.824 67.681
 c 1146.586 67.681 1144.195 67.9 1142.012 67.9 c 1141.617 67.9 1140.719 
67.9 1140.719 66.603 c 1140.719 65.853 1141.398 65.787 1141.742 65.787 c
 1142.203 65.787 1144.195 65.662 1144.195 64.228 c 1144.195 63.056 1142.641
 61.31 1142.355 60.967 c 1126.578 42.803 l 1119.102 63.002 l 1118.691 63.955
 1118.691 64.08 1118.691 64.146 c 1118.691 65.787 1122.02 65.787 1122.703
 65.787 c 1123.66 65.787 1124.34 65.787 1124.34 67.15 c 1124.34 67.9 1123.535
 67.9 1123.316 67.9 c 1121.422 67.9 1116.656 67.681 1114.746 67.681 c 1113.07
 67.681 1108.84 67.9 1107.133 67.9 c 1106.723 67.9 1105.848 67.9 1105.848
 66.537 c 1105.848 65.787 1106.52 65.787 1107.406 65.787 c 1111.484 65.787
 1111.758 65.17 1112.387 63.494 c 1120.738 41.099 l 1120.805 40.908 1121.012
 40.158 1121.012 39.951 c 1121.012 39.76 1118.281 28.787 1117.941 27.576
 c 1117.066 23.849 1117 23.631 1111.539 23.576 c 1110.27 23.576 1109.711
 23.576 1109.711 22.213 c 1109.711 21.459 1110.543 21.459 1110.68 21.459
 c 1112.563 21.459 1117.328 21.678 1119.25 21.678 c 1121.148 21.678 1126.047
 21.459 1127.945 21.459 c 1128.422 21.459 1129.227 21.459 1129.227 22.826
 c 1129.227 23.576 1128.625 23.576 1127.328 23.576 c 1127.191 23.576 1125.898
 23.576 1124.75 23.697 c 1123.316 23.849 1122.906 23.971 1122.906 24.791
 c 1122.906 25.283 1123.535 27.642 1123.875 29.076 c 1126.238 38.67 l 1126.578
 39.951 1126.648 40.158 1127.191 40.783 c h
1144.059 60.135 m f*
1160.492 21.529 m 1160.492 21.939 l 1160.477 22.349 l 1160.449 22.744 l
 1160.422 23.127 l 1160.367 23.494 l 1160.328 23.849 l 1160.258 24.205 l
 1160.191 24.529 l 1160.109 24.857 l 1160.027 25.174 l 1159.934 25.474 l
 1159.824 25.76 l 1159.715 26.033 l 1159.59 26.291 l 1159.453 26.553 l 1159.316
 26.783 l 1159.168 27.002 l 1159.016 27.221 l 1158.867 27.412 l 1158.691
 27.588 l 1158.512 27.763 l 1158.336 27.916 l 1157.953 28.189 l 1157.75 
28.299 l 1157.531 28.392 l 1157.324 28.474 l 1157.094 28.545 l 1156.859 
28.599 l 1156.629 28.638 l 1156.398 28.654 l 1156.137 28.666 l 1153.914 
28.666 1152.547 26.959 1152.547 25.064 c 1152.547 23.236 1153.914 21.459
 1156.137 21.459 c 1156.957 21.459 1157.844 21.732 1158.527 22.334 c 1158.73
 22.482 1158.813 22.553 1158.867 22.553 c 1158.934 22.553 1159.004 22.482
 1159.004 21.529 c 1159.004 16.494 1156.645 12.412 1154.379 10.174 c 1153.625
 9.439 1153.625 9.287 1153.625 9.096 c 1153.625 8.603 1153.969 8.346 1154.309
 8.346 c 1155.059 8.346 1160.492 13.572 1160.492 21.529 c h
1160.492 21.529 m f*
1225.793 66.263 m 1225.805 66.318 l 1225.82 66.373 l 1225.832 66.428 l 
1225.848 66.482 l 1225.859 66.537 l 1225.871 66.603 l 1225.887 66.658 l 
1225.898 66.728 l 1225.914 66.783 l 1225.926 66.849 l 1225.941 66.92 l 1225.953
 66.986 l 1225.969 67.053 l 1225.969 67.135 l 1225.98 67.205 l 1225.98 67.287
 l 1225.98 67.9 1225.641 67.9 1224.289 67.9 c 1195.59 67.9 l 1193.969 67.9
 1193.887 67.834 1193.488 66.537 c 1189.75 54.295 l 1189.602 53.955 1189.531
 53.49 1189.531 53.338 c 1189.531 53.271 1189.531 52.588 1190.363 52.588
 c 1190.965 52.588 1191.113 53.08 1191.238 53.271 c 1193.832 61.31 1197.363
 65.787 1207.953 65.787 c 1219.051 65.787 l 1181.043 23.291 l 1181.043 23.236
 1180.77 22.267 1180.77 22.076 c 1180.77 21.459 1181.246 21.459 1182.477
 21.459 c 1212.047 21.459 l 1213.672 21.459 1213.742 21.529 1214.164 22.826
 c 1218.98 37.838 l 1219.051 38.111 1219.254 38.599 1219.254 38.861 c 1219.254
 39.201 1218.98 39.611 1218.367 39.611 c 1217.766 39.611 1217.684 39.353
 1217.207 37.92 c 1214.23 28.666 1210.973 23.767 1199.41 23.767 c 1187.77
 23.767 l h
1225.793 66.263 m f*
1247.723 38.451 m 1247.723 38.955 l 1247.707 39.486 l 1247.695 40.021 l
 1247.68 40.58 l 1247.625 41.724 l 1247.543 42.928 l 1247.434 44.181 l 1247.285
 45.478 l 1247.105 46.803 l 1246.875 48.181 l 1246.617 49.572 l 1246.301
 50.978 l 1245.934 52.412 l 1245.512 53.857 l 1245.031 55.318 l 1244.5 56.779
 l 1244.215 57.502 l 1243.902 58.224 l 1243.586 58.947 l 1243.23 59.67 l
 1239.164 68.025 1233.324 72.443 1232.641 72.443 c 1232.23 72.443 1231.961
 72.185 1231.961 71.775 c 1231.961 71.572 1231.961 71.435 1233.242 70.209
 c 1239.914 63.494 1243.793 52.67 1243.793 38.451 c 1243.793 26.838 1241.281
 14.869 1232.832 6.299 c 1231.961 5.494 1231.961 5.346 1231.961 5.154 c 
1231.961 4.744 1232.23 4.471 1232.641 4.471 c 1233.324 4.471 1239.426 9.096
 1243.449 17.721 c 1246.902 25.185 1247.723 32.732 1247.723 38.451 c h
1247.723 38.451 m f*
526.234 274.978 m 534.191 283.822 l 535.09 284.791 535.5 285.256 541.148
 285.256 c 541.148 288.447 l 538.762 288.299 535.215 288.244 534.871 288.244
 c 533.168 288.244 529.781 288.392 527.887 288.447 c 527.887 285.256 l 528.813
 285.256 529.645 285.103 530.465 284.638 c 530.18 284.232 530.18 284.107
 529.906 283.822 c 524.215 277.435 l 517.539 285.256 l 520.27 285.256 l 
520.27 288.447 l 518.496 288.392 514.211 288.244 512.043 288.244 c 509.859
 288.244 506.789 288.392 504.551 288.447 c 504.551 285.256 l 509.367 285.256
 l 519.996 272.74 l 511.074 262.736 l 509.926 261.455 507.469 261.455 504.207
 261.455 c 504.207 258.26 l 506.598 258.385 510.145 258.478 510.457 258.478
 c 512.164 258.478 516.109 258.33 517.473 258.26 c 517.473 261.455 l 516.258
 261.455 514.961 261.795 514.961 262.205 c 514.961 262.271 514.961 262.326
 515.426 262.888 c 522.043 270.283 l 529.496 261.455 l 526.863 261.455 l
 526.863 258.26 l 528.621 258.33 532.77 258.478 535.023 258.478 c 537.207
 258.478 540.25 258.33 542.488 258.26 c 542.488 261.455 l 537.672 261.455
 l h
526.234 274.978 m f*
609.699 280.506 m 610.285 280.506 l 610.379 280.517 l 610.488 280.517 l
 610.586 280.533 l 610.68 280.545 l 610.777 280.56 l 610.871 280.572 l 610.969
 280.588 l 611.063 280.615 l 611.309 280.697 l 611.391 280.736 l 611.473
 280.779 l 611.539 280.834 l 611.609 280.873 l 611.676 280.943 l 611.73 
280.998 l 611.785 281.064 l 611.813 281.103 l 611.84 281.146 l 611.855 281.174
 l 611.883 281.213 l 611.895 281.256 l 611.922 281.31 l 611.938 281.349 
l 611.949 281.404 l 611.965 281.447 l 611.977 281.502 l 611.992 281.556 
l 611.992 281.611 l 612.004 281.666 l 612.004 281.842 l 612.004 283.205 
610.707 283.205 609.766 283.205 c 569.043 283.205 l 568.074 283.205 566.805
 283.205 566.805 281.842 c 566.805 280.506 568.074 280.506 569.098 280.506
 c h
609.699 280.506 m f*
609.766 267.295 m 609.941 267.295 l 610.133 267.306 l 610.422 267.306 l
 610.516 267.322 l 610.613 267.334 l 610.707 267.334 l 610.789 267.349 l
 610.887 267.377 l 610.98 267.388 l 611.063 267.416 l 611.156 267.443 l 
611.32 267.498 l 611.402 267.541 l 611.473 267.58 l 611.539 267.635 l 611.609
 267.689 l 611.676 267.744 l 611.73 267.814 l 611.758 267.842 l 611.785 
267.881 l 611.813 267.908 l 611.84 267.951 l 611.855 267.99 l 611.883 268.033
 l 611.895 268.072 l 611.922 268.115 l 611.938 268.17 l 611.949 268.209 
l 611.965 268.263 l 611.977 268.318 l 611.992 268.373 l 611.992 268.428 
l 612.004 268.482 l 612.004 268.658 l 612.004 270.025 610.707 270.025 609.699
 270.025 c 569.098 270.025 l 568.074 270.025 566.805 270.025 566.805 268.658
 c 566.805 267.295 568.074 267.295 569.043 267.295 c h
609.766 267.295 m f*
657.203 241.951 m 657.203 242.033 l 657.188 242.06 l 657.188 242.103 l 
657.176 242.115 l 657.16 242.142 l 657.148 242.17 l 657.133 242.197 l 657.121
 242.224 l 657.105 242.267 l 657.078 242.295 l 657.051 242.334 l 657.023
 242.377 l 656.996 242.416 l 656.957 242.459 l 656.914 242.513 l 656.902
 242.541 l 656.82 242.623 l 656.805 242.65 l 656.777 242.689 l 656.738 242.717
 l 656.711 242.744 l 656.684 242.787 l 656.617 242.853 l 656.59 242.892 
l 656.344 243.138 l 656.301 243.193 l 656.246 243.236 l 656.207 243.291 
l 656.152 243.33 l 656.098 243.385 l 656.055 243.439 l 647.566 252.01 645.383
 264.853 645.383 275.252 c 645.383 287.084 647.965 298.928 656.328 307.404
 c 657.203 308.236 657.203 308.373 657.203 308.576 c 657.203 309.053 656.941
 309.244 656.535 309.244 c 655.852 309.244 649.738 304.631 645.727 296.006
 c 642.258 288.513 641.441 280.971 641.441 275.252 c 641.441 269.943 642.191
 261.74 645.918 254.045 c 649.996 245.678 655.852 241.271 656.535 241.271
 c 656.941 241.271 657.203 241.463 657.203 241.951 c h
657.203 241.951 m f*
683.773 278.799 m 683.813 278.974 l 683.867 279.181 l 683.922 279.4 l 683.977
 279.646 l 684.059 279.904 l 684.141 280.189 l 684.223 280.49 l 684.332 
280.791 l 684.441 281.103 l 684.551 281.431 l 684.688 281.775 l 684.824 
282.103 l 684.973 282.443 l 685.137 282.783 l 685.316 283.127 l 685.504 
283.467 l 685.711 283.795 l 685.914 284.123 l 686.148 284.435 l 686.395 
284.736 l 686.637 285.037 l 686.91 285.31 l 687.199 285.568 l 687.496 285.814
 l 687.813 286.033 l 688.152 286.224 l 688.332 286.318 l 688.508 286.4 l
 688.684 286.467 l 688.863 286.537 l 689.055 286.603 l 689.258 286.658 l
 689.449 286.701 l 689.652 286.74 l 689.859 286.767 l 690.078 286.795 l 
690.297 286.81 l 690.516 286.81 l 690.855 286.81 692.48 286.81 693.898 285.935
 c 692 285.596 690.637 283.888 690.637 282.263 c 690.637 281.185 691.387
 279.877 693.215 279.877 c 694.719 279.877 696.887 281.092 696.887 283.822
 c 696.887 287.369 692.875 288.299 690.582 288.299 c 686.625 288.299 684.238
 284.693 683.43 283.138 c 681.727 287.615 678.055 288.299 676.102 288.299
 c 669.02 288.299 665.133 279.537 665.133 277.83 c 665.133 277.146 665.813
 277.146 665.977 277.146 c 666.496 277.146 666.715 277.299 666.836 277.896
 c 669.145 285.103 673.648 286.81 675.953 286.81 c 677.25 286.81 679.625
 286.209 679.625 282.263 c 679.625 280.162 678.465 275.592 675.953 266.08
 c 674.859 261.865 672.5 259.01 669.484 259.01 c 669.09 259.01 667.52 259.01
 666.102 259.896 c 667.805 260.224 669.293 261.646 669.293 263.568 c 669.293
 265.396 667.805 265.931 666.781 265.931 c 664.734 265.931 663.031 264.17
 663.031 261.986 c 663.031 258.873 666.441 257.51 669.43 257.51 c 673.918
 257.51 676.348 262.271 676.566 262.67 c 677.371 260.158 679.828 257.51 
683.895 257.51 c 690.922 257.51 694.801 266.271 694.801 267.978 c 694.801
 268.658 694.184 268.658 693.965 268.658 c 693.367 268.658 693.215 268.385
 693.094 267.924 c 690.855 260.65 686.23 259.01 684.059 259.01 c 681.383
 259.01 680.305 261.181 680.305 263.502 c 680.305 265.002 680.703 266.49
 681.465 269.478 c h
683.773 278.799 m f*
713.672 258.33 m 713.66 258.74 l 713.645 259.146 l 713.633 259.545 l 713.59
 259.924 l 713.551 260.295 l 713.496 260.65 l 713.441 261.002 l 713.359 
261.33 l 713.289 261.658 l 713.195 261.971 l 713.098 262.271 l 712.992 262.56
 l 712.883 262.834 l 712.758 263.092 l 712.637 263.349 l 712.5 263.584 l
 712.348 263.803 l 712.199 264.021 l 712.035 264.209 l 711.871 264.388 l
 711.695 264.564 l 711.504 264.717 l 711.324 264.853 l 711.121 264.99 l 
710.914 265.099 l 710.711 265.193 l 710.492 265.275 l 710.273 265.342 l 
710.043 265.396 l 709.809 265.439 l 709.566 265.451 l 709.32 265.467 l 707.082
 265.467 705.715 263.76 705.715 261.865 c 705.715 260.033 707.082 258.26
 709.32 258.26 c 710.125 258.26 711.023 258.533 711.707 259.135 c 711.898
 259.283 711.98 259.353 712.047 259.353 c 712.117 259.353 712.172 259.283
 712.172 258.33 c 712.172 253.295 709.809 249.213 707.547 246.974 c 706.809
 246.236 706.809 246.088 706.809 245.896 c 706.809 245.404 707.148 245.146
 707.492 245.146 c 708.227 245.146 713.672 250.373 713.672 258.33 c h
713.672 258.33 m f*
763.047 284.162 m 763.059 284.217 l 763.074 284.26 l 763.102 284.338 l 
763.113 284.408 l 763.141 284.49 l 763.156 284.556 l 763.168 284.611 l 763.184
 284.681 l 763.195 284.736 l 763.211 284.791 l 763.223 284.846 l 763.238
 284.9 l 763.25 284.955 l 763.25 284.994 l 763.266 285.037 l 763.266 285.076
 l 763.277 285.119 l 763.277 285.158 l 763.293 285.201 l 763.293 285.267
 l 763.305 285.349 l 763.305 285.717 l 763.305 286.959 762.363 287.56 761.34
 287.56 c 760.66 287.56 759.582 287.15 758.953 286.127 c 758.828 285.787
 758.27 283.697 758.023 282.455 c 757.535 280.697 757.07 278.853 756.66 
277.025 c 753.59 264.783 l 753.332 263.76 750.41 259.01 745.906 259.01 c
 742.453 259.01 741.688 261.986 741.688 264.51 c 741.688 267.635 742.863
 271.865 745.168 277.83 c 746.246 280.627 746.535 281.377 746.535 282.744
 c 746.535 285.787 744.352 288.299 740.938 288.299 c 734.484 288.299 731.961
 278.459 731.961 277.83 c 731.961 277.146 732.641 277.146 732.793 277.146
 c 733.473 277.146 733.543 277.299 733.883 278.388 c 735.711 284.791 738.43
 286.81 740.746 286.81 c 741.281 286.81 742.453 286.81 742.453 284.638 c
 742.453 282.935 741.77 281.185 741.281 279.877 c 738.578 272.67 737.336
 268.795 737.336 265.588 c 737.336 259.556 741.621 257.51 745.633 257.51
 c 748.293 257.51 750.602 258.67 752.496 260.568 c 751.625 257.045 750.82
 253.701 748.09 250.088 c 746.316 247.795 743.738 245.803 740.598 245.803
 c 739.668 245.803 736.598 246.017 735.438 248.666 c 736.531 248.666 737.418
 248.666 738.359 249.498 c 739.043 250.088 739.723 250.986 739.723 252.271
 c 739.723 254.385 737.895 254.658 737.215 254.658 c 735.656 254.658 733.391
 253.564 733.391 250.236 c 733.391 246.826 736.395 244.314 740.598 244.314
 c 747.613 244.314 754.613 250.521 756.523 258.193 c h
763.047 284.162 m f*
779.656 258.33 m 779.656 258.74 l 779.641 259.146 l 779.613 259.545 l 779.586
 259.924 l 779.531 260.295 l 779.492 260.65 l 779.422 261.002 l 779.355 
261.33 l 779.273 261.658 l 779.191 261.971 l 779.094 262.271 l 778.984 262.56
 l 778.875 262.834 l 778.754 263.092 l 778.617 263.349 l 778.48 263.584 
l 778.344 263.803 l 778.18 264.021 l 778.031 264.209 l 777.676 264.564 l
 777.5 264.717 l 777.117 264.99 l 776.91 265.099 l 776.707 265.193 l 776.488
 265.275 l 776.258 265.342 l 776.039 265.396 l 775.793 265.439 l 775.563
 265.451 l 775.316 265.467 l 773.078 265.467 771.711 263.76 771.711 261.865
 c 771.711 260.033 773.078 258.26 775.316 258.26 c 776.121 258.26 777.02
 258.533 777.703 259.135 c 777.895 259.283 777.977 259.353 778.043 259.353
 c 778.098 259.353 778.168 259.283 778.168 258.33 c 778.168 253.295 775.805
 249.213 773.543 246.974 c 772.789 246.236 772.789 246.088 772.789 245.896
 c 772.789 245.404 773.133 245.146 773.473 245.146 c 774.223 245.146 779.656
 250.373 779.656 258.33 c h
779.656 258.33 m f*
820.938 285.443 m 826.777 285.443 l 828.141 285.443 828.824 285.443 828.824
 286.81 c 828.824 287.56 828.141 287.56 826.996 287.56 c 821.348 287.56 
l 822.777 295.326 l 823.051 296.744 824.008 301.56 824.418 302.381 c 825.031
 303.678 826.191 304.701 827.609 304.701 c 827.867 304.701 829.645 304.701
 830.938 303.459 c 827.949 303.213 827.27 300.826 827.27 299.803 c 827.27
 298.244 828.484 297.428 829.793 297.428 c 831.555 297.428 833.52 298.928
 833.52 301.506 c 833.52 304.631 830.395 306.189 827.609 306.189 c 825.289
 306.189 821.004 304.974 818.984 298.244 c 818.574 296.814 818.355 296.131
 816.746 287.56 c 812.051 287.56 l 810.742 287.56 810.004 287.56 810.004
 286.279 c 810.004 285.443 810.621 285.443 811.902 285.443 c 816.406 285.443
 l 811.289 258.603 l 810.059 252.01 808.914 245.803 805.379 245.803 c 805.094
 245.803 803.414 245.803 802.117 247.045 c 805.242 247.232 805.844 249.689
 805.844 250.713 c 805.844 252.271 804.629 253.103 803.332 253.103 c 801.559
 253.103 799.594 251.599 799.594 249.01 c 799.594 245.951 802.582 244.314
 805.379 244.314 c 809.105 244.314 811.832 248.326 813.047 250.92 c 815.23
 255.205 816.801 263.42 816.871 263.912 c h
820.938 285.443 m f*
856.242 275.252 m 856.242 275.756 l 856.227 276.287 l 856.215 276.822 l
 856.199 277.381 l 856.145 278.525 l 856.063 279.728 l 855.953 280.982 l
 855.805 282.279 l 855.625 283.603 l 855.395 284.982 l 855.137 286.373 l
 854.82 287.779 l 854.453 289.213 l 854.043 290.658 l 853.566 292.119 l 
853.02 293.58 l 852.734 294.303 l 852.434 295.025 l 852.105 295.748 l 851.766
 296.471 l 847.684 304.822 841.844 309.244 841.16 309.244 c 840.766 309.244
 840.48 308.986 840.48 308.576 c 840.48 308.373 840.48 308.236 841.762 307.006
 c 848.434 300.291 852.324 289.471 852.324 275.252 c 852.324 263.638 849.801
 251.67 841.352 243.099 c 840.48 242.295 840.48 242.142 840.48 241.951 c
 840.48 241.545 840.766 241.271 841.16 241.271 c 841.844 241.271 847.941
 245.896 851.984 254.521 c 855.434 261.986 856.242 269.533 856.242 275.252
 c h
856.242 275.252 m f*
4.014685 w
[ 4.014684 4.014684] 0 d
q 1 0 0 -1 0 629.333801 cm
660.18 275.484 m 660.18 283.906 656.934 290.734 652.93 290.734 c 648.926
 290.734 645.68 283.906 645.68 275.484 c 645.68 267.063 648.926 260.234 
652.93 260.234 c 656.934 260.234 660.18 267.063 660.18 275.484 c h
660.18 275.484 m S Q
4.8 w
[] 0.0 d
q 1 0 0 -1 0 629.333801 cm
639.215 254.453 m 296.359 256.742 l S Q
650.293 374.951 m 633.75 365.244 l 633.621 384.443 l h
650.293 374.951 m f*
2.399946 w
q 1 0.00666666 0.00666666 -1 0 629.333801 cm
648.568 258.707 m 631.961 268.303 l 631.96 249.104 l h
648.568 258.707 m S Q
285.281 372.521 m 301.824 382.228 l 301.953 363.029 l h
285.281 372.521 m f*
q -1 -0.00666666 -0.00666666 1 0 629.333801 cm
-283.557 -258.703 m -300.164 -249.107 l -300.164 -268.306 l h
-283.557 -258.703 m S Q
280.047 373.252 m 279.648 373.252 l 279.445 373.236 l 279.254 373.236 l
 279.063 373.224 l 278.871 373.197 l 278.777 373.181 l 278.68 373.17 l 278.598
 373.142 l 278.504 373.127 l 278.406 373.099 l 278.219 373.045 l 278.137
 373.017 l 278.039 372.978 l 277.945 372.935 l 277.863 372.896 l 277.766
 372.842 l 277.672 372.787 l 277.59 372.732 l 277.492 372.662 l 277.398 
372.607 l 277.316 372.525 l 277.223 372.459 l 277.141 372.377 l 277.043 
372.283 l 275.953 371.26 275.828 370.111 275.828 369.646 c 275.828 367.998
 277.043 367.26 278.34 367.26 c 280.305 367.26 282.16 368.896 282.16 371.599
 c 282.16 374.928 278.969 377.439 274.121 377.439 c 264.953 377.439 255.918
 367.724 255.918 358.142 c 255.918 352.029 259.863 346.654 266.918 346.654
 c 276.633 346.654 282.352 353.857 282.352 354.678 c 282.352 355.072 281.941
 355.564 281.547 355.564 c 281.207 355.564 281.07 355.416 280.645 354.881
 c 275.27 348.154 267.871 348.154 267.066 348.154 c 262.781 348.154 260.941
 351.471 260.941 355.564 c 260.941 358.334 262.293 364.955 264.609 369.158
 c 266.727 373.033 270.453 375.951 274.191 375.951 c 276.512 375.951 279.09
 375.08 280.047 373.252 c h
280.047 373.252 m f*
Q Q
showpage
%%Trailer
end restore
%%EOF
