%!PS-Adobe-3.0 EPSF-3.0
%%Creator: cairo 1.14.1 (http://cairographics.org)
%%CreationDate: Tue Aug 11 10:32:27 2015
%%Pages: 1
%%DocumentData: Clean7Bit
%%LanguageLevel: 2
%%BoundingBox: 25 176 786 510
%%EndComments
%%BeginProlog
save
50 dict begin
/q { gsave } bind def
/Q { grestore } bind def
/cm { 6 array astore concat } bind def
/w { setlinewidth } bind def
/J { setlinecap } bind def
/j { setlinejoin } bind def
/M { setmiterlimit } bind def
/d { setdash } bind def
/m { moveto } bind def
/l { lineto } bind def
/c { curveto } bind def
/h { closepath } bind def
/re { exch dup neg 3 1 roll 5 3 roll moveto 0 rlineto
      0 exch rlineto 0 rlineto closepath } bind def
/S { stroke } bind def
/f { fill } bind def
/f* { eofill } bind def
/n { newpath } bind def
/W { clip } bind def
/W* { eoclip } bind def
/BT { } bind def
/ET { } bind def
/pdfmark where { pop globaldict /?pdfmark /exec load put }
    { globaldict begin /?pdfmark /pop load def /pdfmark
    /cleartomark load def end } ifelse
/BDC { mark 3 1 roll /BDC pdfmark } bind def
/EMC { mark /EMC pdfmark } bind def
/cairo_store_point { /cairo_point_y exch def /cairo_point_x exch def } def
/Tj { show currentpoint cairo_store_point } bind def
/TJ {
  {
    dup
    type /stringtype eq
    { show } { -0.001 mul 0 cairo_font_matrix dtransform rmoveto } ifelse
  } forall
  currentpoint cairo_store_point
} bind def
/cairo_selectfont { cairo_font_matrix aload pop pop pop 0 0 6 array astore
    cairo_font exch selectfont cairo_point_x cairo_point_y moveto } bind def
/Tf { pop /cairo_font exch def /cairo_font_matrix where
      { pop cairo_selectfont } if } bind def
/Td { matrix translate cairo_font_matrix matrix concatmatrix dup
      /cairo_font_matrix exch def dup 4 get exch 5 get cairo_store_point
      /cairo_font where { pop cairo_selectfont } if } bind def
/Tm { 2 copy 8 2 roll 6 array astore /cairo_font_matrix exch def
      cairo_store_point /cairo_font where { pop cairo_selectfont } if } bind def
/g { setgray } bind def
/rg { setrgbcolor } bind def
/d1 { setcachedevice } bind def
%%EndProlog
%%BeginSetup
%%EndSetup
%%Page: 1 1
%%BeginPageSetup
%%PageBoundingBox: 25 176 786 510
%%EndPageSetup
q 25 176 761 334 rectclip q
0 g
4.799998 w
0 J
0 j
[] 0.0 d
4 M q 1 0 0 -1 0 509.023712 cm
376.063 136.875 m 684.055 136.875 l 685.371 136.875 686.434 137.938 686.434
 139.254 c 686.434 327.246 l 686.434 328.563 685.371 329.625 684.055 329.625
 c 376.063 329.625 l 374.746 329.625 373.684 328.563 373.684 327.246 c 373.684
 139.254 l 373.684 137.938 374.746 136.875 376.063 136.875 c h
376.063 136.875 m S Q
q 1 0 0 -1 0 509.023712 cm
473.207 32.875 m 781.195 32.875 l 782.516 32.875 783.574 33.938 783.574
 35.254 c 783.574 223.246 l 783.574 224.563 782.516 225.625 781.195 225.625
 c 473.207 225.625 l 471.887 225.625 470.828 224.563 470.828 223.246 c 470.828
 35.254 l 470.828 33.938 471.887 32.875 473.207 32.875 c h
473.207 32.875 m S Q
q 1 0 0 -1 0 509.023712 cm
373.488 136.68 m 469.488 32.68 l S Q
q 1 0 0 -1 0 509.023712 cm
685.488 137.82 m 781.488 33.82 l S Q
q 1 0 0 -1 0 509.023712 cm
687.773 329.82 m 783.773 225.82 l S Q
q 1 0 0 -1 0 509.023712 cm
376.457 327.992 m 472.457 223.992 l S Q
4.8 w
q 1 0 0 -1 0 509.023712 cm
29.781 185.434 m 92.656 185.434 l 93.496 185.434 94.168 186.109 94.168 
186.945 c 94.168 295.078 l 94.168 295.914 93.496 296.59 92.656 296.59 c 
29.781 296.59 l 28.945 296.59 28.27 295.914 28.27 295.078 c 28.27 186.945
 l 28.27 186.109 28.945 185.434 29.781 185.434 c h
29.781 185.434 m S Q
q 1 0 0 -1 0 509.023712 cm
60.129 185.531 m 21.012 182.043 60.758 147.266 60.922 137.324 c S Q
q 1 0 0 -1 0 509.023712 cm
64.688 185.531 m 103.801 182.043 64.059 147.266 63.895 137.324 c S Q
4.799998 w
q 1 0 0 -1 0 509.023712 cm
437.398 215.055 m 437.398 220.41 433.055 224.754 427.699 224.754 c 422.344
 224.754 418.004 220.41 418.004 215.055 c 418.004 209.699 422.344 205.355
 427.699 205.355 c 433.055 205.355 437.398 209.699 437.398 215.055 c h
437.398 215.055 m S Q
4.527915 w
[ 18.111661 4.527915] 0 d
q 1 0 0 -1 0 509.023712 cm
93.617 296.215 m 703.734 146.82 l S Q
713.887 364.688 m 700.824 352.164 l 696.516 369.758 l h
713.887 364.688 m f*
2.198995 w
[] 0.0 d
q 1 0.24486 0.24486 -1 0 509.023712 cm
640.163 301.086 m 624.946 309.884 l 624.946 292.29 l h
640.163 301.086 m S Q
4.8 w
[ 19.200001 4.8] 0 d
q 1 0 0 -1 0 509.023712 cm
63.113 137.828 m 716.152 273.352 l S Q
727 233.418 m 708.789 227.395 l 712.688 246.196 l h
727 233.418 m f*
2.34993 w
[] 0.0 d
q 1 -0.207529 -0.207529 -1 0 509.023712 cm
751.817 119.582 m 735.556 128.98 l 735.553 110.18 l h
751.817 119.582 m S Q
3.390173 w
q 1 0 0 -1 0 509.023712 cm
728.477 222.219 m 710.977 226.109 728.758 264.879 728.832 275.965 c S Q
3.234629 w
q 1 0 0 -1 0 509.023712 cm
728.273 220.82 m 746.051 224.309 727.988 259.059 727.914 268.992 c S Q
4.8 w
q 1 0 0 -1 0 509.023712 cm
712.43 145.898 m 711.656 236.699 l S Q
q 1 0 0 -1 0 509.023712 cm
738.949 121.234 m 738.176 208.801 l S Q
q 1 0 0 -1 0 509.023712 cm
712.719 147.934 m 739.047 119.973 l S Q
0 0 0.501961 rg
468.691 476.36 m 405.656 406.864 l f*
q 1 0 0 -1 0 509.023712 cm
468.691 32.664 m 405.656 102.16 l S Q
398.215 398.657 m 402.262 417.407 l 416.484 404.508 l h
398.215 398.657 m f*
1.777726 w
q -0.906977 -1 -1 0.906977 0 509.023712 cm
-137.608 -273.408 m -149.909 -266.298 l -149.909 -280.52 l h
-137.608 -273.408 m S Q
470.09 478.867 m 469.941 402.067 l f*
4.8 w
q 1 0 0 -1 0 509.023712 cm
470.09 30.156 m 469.941 106.957 l S Q
469.918 390.989 m 460.352 407.617 l 479.551 407.578 l h
469.918 390.989 m f*
2.399996 w
q -0.00195127 -1 -1 0.00195127 0 509.023712 cm
117.118 -470.146 m 100.508 -460.548 l 100.509 -479.747 l h
117.118 -470.146 m S Q
0 0 1 rg
4.8 w
q 1 0 0 -1 0 509.023712 cm
417.652 298.766 m 699.035 303.316 l S Q
406.574 210.438 m 423.336 219.766 l 423.023 200.571 l h
406.574 210.438 m f*
2.399686 w
q -1 0.0161711 0.0161711 1 0 509.023712 cm
-411.295 -291.935 m -427.902 -282.338 l -427.9 -301.534 l h
-411.295 -291.935 m S Q
710.113 205.528 m 693.352 196.199 l 693.664 215.395 l h
710.113 205.528 m f*
q 1 -0.0161711 -0.0161711 -1 0 509.023712 cm
714.834 291.936 m 698.228 301.533 l 698.23 282.338 l h
714.834 291.936 m S Q
0 0 0.501961 rg
469.594 476.242 m 350.023 476.223 l f*
4.8 w
q 1 0 0 -1 0 509.023712 cm
469.594 32.781 m 350.023 32.801 l S Q
338.945 476.223 m 355.555 485.824 l 355.555 466.625 l h
338.945 476.223 m f*
2.4 w
q -1 -0.000165927 -0.000165927 1 0 509.023712 cm
-338.94 -32.857 m -355.551 -23.258 l -355.548 -42.457 l h
-338.94 -32.857 m S Q
0 g
304.531 507.989 m 304.555 508.094 l 304.57 508.129 l 304.578 508.16 l 304.586
 508.203 l 304.594 508.239 l 304.602 508.282 l 304.609 508.317 l 304.641
 508.489 l 304.641 508.61 l 304.648 508.637 l 304.648 509.024 304.449 509.024
 303.668 509.024 c 287.043 509.024 l 286.102 509.024 286.055 508.981 285.816
 508.16 c 283.66 500.43 l 283.57 500.215 283.531 499.922 283.531 499.824
 c 283.531 499.782 283.531 499.352 284.016 499.352 c 284.363 499.352 284.449
 499.66 284.52 499.782 c 286.016 504.86 288.07 507.688 294.203 507.688 c
 300.633 507.688 l 278.613 480.844 l 278.613 480.809 278.457 480.199 278.457
 480.078 c 278.457 479.688 278.727 479.688 279.445 479.688 c 296.578 479.688
 l 297.516 479.688 297.559 479.731 297.801 480.551 c 300.594 490.035 l 300.633
 490.207 300.75 490.516 300.75 490.68 c 300.75 490.895 300.594 491.153 300.238
 491.153 c 299.891 491.153 299.844 490.992 299.566 490.086 c 297.84 484.242
 295.953 481.145 289.254 481.145 c 282.512 481.145 l h
304.531 507.989 m f*
305.082 469.614 m 305.066 469.535 l 305.051 469.465 l 305.035 469.387 l
 305.02 469.328 l 305.004 469.258 l 304.98 469.199 l 304.965 469.137 l 304.934
 469.035 l 304.91 468.992 l 304.887 468.942 l 304.863 468.899 l 304.84 468.864
 l 304.816 468.821 l 304.781 468.785 l 304.75 468.758 l 304.719 468.723 
l 304.68 468.699 l 304.641 468.672 l 304.594 468.657 l 304.555 468.629 l
 304.5 468.614 l 304.441 468.606 l 304.387 468.586 l 304.324 468.571 l 304.285
 468.571 l 304.254 468.563 l 304.215 468.563 l 304.184 468.551 l 304.102
 468.551 l 304.063 468.543 l 303.93 468.543 l 303.883 468.535 l 303.738 
468.535 l 303.375 468.535 302.996 468.535 302.996 467.907 c 302.996 467.571
 303.242 467.449 303.375 467.449 c 304.094 467.449 305.012 467.571 305.746
 467.571 c 306.688 467.571 307.723 467.449 308.641 467.449 c 308.887 467.449
 309.195 467.543 309.195 468.106 c 309.195 468.535 308.801 468.535 308.484
 468.535 c 307.867 468.535 307.125 468.535 307.125 468.887 c 307.125 469.051
 307.32 469.828 307.434 470.278 c 307.766 471.864 308.145 473.492 308.445
 474.742 c 308.777 474.157 309.629 472.985 311.281 472.985 c 311.281 473.821
 l 309.328 473.821 308.84 476.129 308.84 476.43 c 308.84 476.551 308.887
 476.766 308.91 476.887 c 310.293 482.922 l 311.891 485.242 313.273 485.68
 314.152 485.68 c 315.227 485.68 316.168 484.809 316.168 482.774 c 316.168
 481.535 315.559 478.473 314.73 476.723 c 314.043 475.258 312.688 473.821
 311.281 473.821 c 311.281 472.985 l 314.641 472.985 318.367 477.035 318.367
 481.508 c 318.367 485.024 316.129 486.516 314.238 486.516 c 312.523 486.516
 311.059 485.266 310.316 484.414 c 309.852 486.129 308.309 486.516 307.48
 486.516 c 306.402 486.516 305.746 485.731 305.305 484.93 c 304.75 483.907
 304.316 482.114 304.316 481.922 c 304.316 481.535 304.703 481.535 304.781
 481.535 c 305.172 481.535 305.195 481.629 305.391 482.438 c 305.805 484.188
 306.332 485.68 307.406 485.68 c 308.121 485.68 308.309 485.024 308.309 
484.215 c 308.309 483.879 308.262 483.492 308.223 483.309 c h
305.082 469.614 m f*
327.867 493.223 m 327.867 493.239 l 327.875 493.25 l 327.875 493.266 l 
327.883 493.274 l 327.883 493.285 l 327.891 493.301 l 327.891 493.317 l 
327.898 493.336 l 327.898 493.352 l 327.91 493.371 l 327.91 493.387 l 327.918
 493.414 l 327.926 493.43 l 327.934 493.473 l 327.941 493.508 l 327.949 
493.532 l 327.949 493.551 l 327.957 493.567 l 327.957 493.586 l 327.965 
493.602 l 327.965 493.637 l 327.973 493.645 l 327.973 493.68 l 327.98 493.68
 l 327.98 493.696 l 327.98 493.86 327.867 494.129 327.527 494.129 c 326.992
 494.129 324.707 493.887 324.012 493.817 c 323.789 493.793 323.41 493.766
 323.41 493.129 c 323.41 492.715 323.789 492.715 324.121 492.715 c 325.441
 492.715 325.441 492.5 325.441 492.258 c 325.441 492.051 325.387 491.86 
325.332 491.594 c 321.441 474.594 l 321.309 474.059 321.309 474.008 321.309
 473.942 c 321.309 473.492 321.641 472.985 322.246 472.985 c 322.555 472.985
 323.07 473.129 323.379 473.758 c 323.457 473.942 323.703 475.016 323.836
 475.645 c 324.484 478.328 l 324.555 478.778 324.84 479.914 324.91 480.364
 c 325.195 481.508 325.195 481.535 325.742 482.5 c 326.629 483.973 328.004
 485.68 330.152 485.68 c 331.695 485.68 331.781 484.293 331.781 483.578 
c 331.781 481.774 330.598 478.449 330.152 477.18 c 329.852 476.336 329.742
 476.071 329.742 475.551 c 329.742 473.965 330.953 472.985 332.352 472.985
 c 335.117 472.985 336.328 477.114 336.328 477.578 c 336.328 477.965 335.973
 477.965 335.887 477.965 c 335.5 477.965 335.465 477.793 335.363 477.457
 c 334.723 475.051 333.512 473.821 332.438 473.821 c 331.852 473.821 331.742
 474.235 331.742 474.871 c 331.742 475.551 331.895 475.949 332.391 477.301
 c 332.707 478.235 333.848 481.414 333.848 483.094 c 333.848 483.578 333.848
 484.844 332.816 485.707 c 332.352 486.102 331.563 486.516 330.266 486.516
 c 328.25 486.516 326.793 485.317 325.781 484.024 c h
327.867 493.223 m f*
347.336 421.832 m 344.102 430.043 l 343.984 430.383 343.91 430.532 343.91
 430.574 c 343.91 430.832 344.566 431.61 346.184 431.778 c 346.57 431.817
 346.957 431.86 346.957 432.571 c 346.957 433.059 346.484 433.059 346.379
 433.059 c 344.789 433.059 343.133 432.926 341.516 432.926 c 340.551 432.926
 338.168 433.059 337.199 433.059 c 336.973 433.059 336.504 433.059 336.504
 432.231 c 336.504 431.778 336.891 431.778 337.391 431.778 c 339.707 431.778
 339.93 431.364 340.285 430.457 c 344.828 418.934 l 336.695 409.563 l 336.199
 409.11 l 334.313 406.922 332.492 406.266 330.527 406.149 c 330.031 406.11
 329.676 406.11 329.676 405.321 c 329.676 405.282 329.676 404.867 330.188
 404.867 c 331.332 404.867 332.602 405 333.801 405 c 335.234 405 336.742
 404.867 338.121 404.867 c 338.359 404.867 338.824 404.867 338.824 405.696
 c 338.824 406.11 338.438 406.149 338.359 406.149 c 338.012 406.184 336.813
 406.266 336.813 407.426 c 336.813 408.09 337.391 408.75 337.855 409.282
 c 341.781 413.746 l 345.254 417.782 l 349.148 407.922 l 349.301 407.469
 349.34 407.426 349.34 407.336 c 349.34 407.012 348.613 406.317 347.105 
406.149 c 346.68 406.11 346.34 406.059 346.34 405.356 c 346.34 404.867 346.766
 404.867 346.91 404.867 c 348.004 404.867 350.695 405 351.77 405 c 352.738
 405 355.082 404.867 356.051 404.867 c 356.32 404.867 356.785 404.867 356.785
 405.653 c 356.785 406.149 356.398 406.149 356.09 406.149 c 353.512 406.184
 353.426 406.317 352.777 407.957 c 351.277 411.801 348.691 418.239 347.809
 420.707 c 350.434 423.606 354.465 428.52 355.703 429.672 c 356.824 430.664
 358.285 431.653 360.602 431.778 c 361.105 431.817 361.445 431.817 361.445
 432.606 c 361.445 432.645 361.445 433.059 360.949 433.059 c 359.789 433.059
 358.52 432.926 357.32 432.926 c 355.895 432.926 354.434 433.059 353.039
 433.059 c 352.809 433.059 352.313 433.059 352.313 432.231 c 352.313 431.949
 352.508 431.817 352.777 431.778 c 353.125 431.742 354.324 431.653 354.324
 430.5 c 354.324 429.91 353.898 429.383 353.582 429.008 c h
347.336 421.832 m f*
362.605 395.18 m 362.59 395.106 l 362.574 395.039 l 362.559 394.965 l 362.543
 394.907 l 362.527 394.84 l 362.512 394.785 l 362.488 394.727 l 362.457 
394.625 l 362.434 394.586 l 362.41 394.535 l 362.395 394.492 l 362.367 394.461
 l 362.344 394.418 l 362.313 394.387 l 362.281 394.36 l 362.25 394.328 l
 362.211 394.305 l 362.172 394.278 l 362.133 394.262 l 362.086 394.239 l
 362.031 394.219 l 361.977 394.211 l 361.926 394.196 l 361.863 394.18 l 
361.824 394.18 l 361.793 394.172 l 361.762 394.172 l 361.723 394.16 l 361.645
 394.16 l 361.605 394.153 l 361.477 394.153 l 361.43 394.145 l 361.289 394.145
 l 360.934 394.145 360.563 394.145 360.563 393.539 c 360.563 393.219 360.801
 393.102 360.934 393.102 c 361.637 393.102 362.535 393.219 363.254 393.219
 c 364.176 393.219 365.191 393.102 366.086 393.102 c 366.328 393.102 366.629
 393.192 366.629 393.731 c 366.629 394.145 366.242 394.145 365.934 394.145
 c 365.328 394.145 364.602 394.145 364.602 394.485 c 364.602 394.641 364.797
 395.387 364.902 395.821 c 365.23 397.344 365.609 398.91 365.895 400.11 
c 366.219 399.547 367.055 398.422 368.672 398.422 c 368.672 399.223 l 366.77
 399.223 366.281 401.446 366.281 401.735 c 366.281 401.852 366.328 402.059
 366.352 402.172 c 367.703 407.973 l 369.27 410.203 370.621 410.625 371.48
 410.625 c 372.535 410.625 373.453 409.789 373.453 407.832 c 373.453 406.641
 372.859 403.699 372.047 402.016 c 371.375 400.61 370.059 399.223 368.672
 399.223 c 368.672 398.422 l 371.961 398.422 375.605 402.313 375.605 406.614
 c 375.605 409.996 373.418 411.43 371.566 411.43 c 369.887 411.43 368.457
 410.227 367.734 409.407 c 367.273 411.055 365.762 411.43 364.949 411.43
 c 363.898 411.43 363.254 410.676 362.82 409.903 c 362.281 408.918 361.855
 407.196 361.855 407.012 c 361.855 406.641 362.234 406.641 362.32 406.641
 c 362.691 406.641 362.715 406.731 362.906 407.508 c 363.309 409.192 363.828
 410.625 364.879 410.625 c 365.578 410.625 365.762 409.996 365.762 409.215
 c 365.762 408.895 365.715 408.52 365.676 408.348 c h
362.605 395.18 m f*
384.91 417.875 m 384.91 417.891 l 384.918 417.891 l 384.918 417.914 l 384.922
 417.922 l 384.922 417.934 l 384.93 417.949 l 384.93 417.965 l 384.938 417.981
 l 384.938 417.996 l 384.945 418.016 l 384.945 418.032 l 384.953 418.055
 l 384.961 418.074 l 384.969 418.114 l 384.977 418.149 l 384.984 418.172
 l 384.984 418.188 l 384.992 418.203 l 384.992 418.223 l 385 418.239 l 385
 418.27 l 385.008 418.282 l 385.008 418.313 l 385.016 418.313 l 385.016 
418.328 l 385.016 418.489 384.91 418.742 384.574 418.742 c 384.051 418.742
 381.813 418.512 381.133 418.446 c 380.914 418.422 380.543 418.395 380.543
 417.782 c 380.543 417.387 380.914 417.387 381.238 417.387 c 382.531 417.387
 382.531 417.176 382.531 416.946 c 382.531 416.746 382.477 416.567 382.426
 416.309 c 378.617 399.969 l 378.484 399.457 378.484 399.407 378.484 399.34
 c 378.484 398.91 378.809 398.422 379.406 398.422 c 379.707 398.422 380.211
 398.563 380.512 399.168 c 380.59 399.34 380.828 400.375 380.961 400.981
 c 381.598 403.559 l 381.664 403.989 381.945 405.082 382.016 405.512 c 382.293
 406.614 382.293 406.641 382.828 407.567 c 383.691 408.985 385.039 410.625
 387.145 410.625 c 388.652 410.625 388.738 409.289 388.738 408.602 c 388.738
 406.871 387.578 403.672 387.145 402.457 c 386.852 401.645 386.742 401.387
 386.742 400.891 c 386.742 399.364 387.926 398.422 389.297 398.422 c 392.004
 398.422 393.188 402.391 393.188 402.836 c 393.188 403.211 392.84 403.211
 392.754 403.211 c 392.375 403.211 392.344 403.043 392.246 402.719 c 391.617
 400.41 390.434 399.223 389.383 399.223 c 388.809 399.223 388.699 399.621
 388.699 400.235 c 388.699 400.891 388.848 401.27 389.336 402.571 c 389.645
 403.465 390.758 406.524 390.758 408.141 c 390.758 408.602 390.758 409.821
 389.754 410.649 c 389.297 411.032 388.523 411.43 387.254 411.43 c 385.281
 411.43 383.855 410.278 382.867 409.035 c h
384.91 417.875 m f*
504.047 414.961 m 504.586 415.594 l 505.758 416.938 507.043 418.446 509.691
 418.668 c 510.121 418.715 510.473 418.715 510.473 419.528 c 510.473 419.879
 510.277 420.059 509.957 420.059 c 508.949 420.059 507.824 419.914 506.77
 419.914 c 505.484 419.914 504.117 420.059 502.875 420.059 c 502.641 420.059
 502.133 420.059 502.133 419.207 c 502.133 418.715 502.523 418.668 502.719
 418.668 c 502.984 418.668 504.117 418.586 504.117 417.649 c 504.117 416.875
 503.227 415.731 503.07 415.508 c 494.031 403.582 l 489.738 416.84 l 489.512
 417.469 489.512 417.547 489.512 417.594 c 489.512 418.668 491.414 418.668
 491.805 418.668 c 492.359 418.668 492.75 418.668 492.75 419.563 c 492.75
 420.059 492.281 420.059 492.164 420.059 c 491.078 420.059 488.348 419.914
 487.254 419.914 c 486.285 419.914 483.867 420.059 482.891 420.059 c 482.656
 420.059 482.156 420.059 482.156 419.16 c 482.156 418.668 482.531 418.668
 483.047 418.668 c 485.379 418.668 485.543 418.266 485.895 417.164 c 490.688
 402.461 l 490.719 402.336 490.844 401.844 490.844 401.711 c 490.844 401.586
 489.277 394.383 489.082 393.586 c 488.582 391.141 488.543 390.996 485.418
 390.961 c 484.684 390.961 484.367 390.961 484.367 390.063 c 484.367 389.571
 484.848 389.571 484.918 389.571 c 486.004 389.571 488.73 389.715 489.824
 389.715 c 490.914 389.715 493.727 389.571 494.813 389.571 c 495.078 389.571
 495.543 389.571 495.543 390.469 c 495.543 390.961 495.203 390.961 494.453
 390.961 c 494.383 390.961 493.641 390.961 492.977 391.039 c 492.164 391.141
 491.93 391.219 491.93 391.758 c 491.93 392.078 492.281 393.629 492.477 
394.571 c 493.836 400.867 l 494.031 401.711 494.063 401.844 494.383 402.258
 c h
504.047 414.961 m f*
0.155633 w
q 0.872705 0 0 1 0 509.023712 cm
577.569 -94.063 m 578.186 -93.43 l 579.529 -92.086 581.002 -90.578 584.036
 -90.355 c 584.529 -90.309 584.932 -90.309 584.932 -89.496 c 584.932 -89.145
 584.708 -88.965 584.341 -88.965 c 583.186 -88.965 581.897 -89.109 580.688
 -89.109 c 579.216 -89.109 577.649 -88.965 576.226 -88.965 c 575.957 -88.965
 575.375 -88.965 575.375 -89.816 c 575.375 -90.309 575.823 -90.355 576.047
 -90.355 c 576.351 -90.355 577.649 -90.438 577.649 -91.375 c 577.649 -92.148
 576.629 -93.293 576.45 -93.516 c 566.092 -105.441 l 561.173 -92.184 l 560.913
 -91.555 560.913 -91.477 560.913 -91.43 c 560.913 -90.355 563.093 -90.355
 563.541 -90.355 c 564.176 -90.355 564.624 -90.355 564.624 -89.461 c 564.624
 -88.965 564.087 -88.965 563.953 -88.965 c 562.708 -88.965 559.579 -89.109
 558.326 -89.109 c 557.216 -89.109 554.445 -88.965 553.326 -88.965 c 553.058
 -88.965 552.485 -88.965 552.485 -89.863 c 552.485 -90.355 552.915 -90.355
 553.505 -90.355 c 556.178 -90.355 556.366 -90.758 556.768 -91.859 c 562.261
 -106.563 l 562.296 -106.688 562.44 -107.18 562.44 -107.313 c 562.44 -107.438
 560.645 -114.641 560.421 -115.438 c 559.848 -117.883 559.803 -118.027 556.222
 -118.063 c 555.381 -118.063 555.018 -118.063 555.018 -118.961 c 555.018
 -119.453 555.569 -119.453 555.649 -119.453 c 556.894 -119.453 560.018 -119.309
 561.271 -119.309 c 562.52 -119.309 565.743 -119.453 566.987 -119.453 c 
567.292 -119.453 567.824 -119.453 567.824 -118.555 c 567.824 -118.063 567.435
 -118.063 566.575 -118.063 c 566.495 -118.063 565.644 -118.063 564.884 -117.984
 c 563.953 -117.883 563.684 -117.805 563.684 -117.266 c 563.684 -116.945
 564.087 -115.395 564.311 -114.453 c 565.868 -108.156 l 566.092 -107.313
 566.128 -107.18 566.495 -106.766 c h
577.569 -94.063 m S Q
505.438 379.098 m 505.422 379.02 l 505.406 378.946 l 505.391 378.867 l 
505.375 378.805 l 505.359 378.731 l 505.344 378.668 l 505.32 378.606 l 505.305
 378.551 l 505.289 378.5 l 505.266 378.453 l 505.242 378.399 l 505.227 378.356
 l 505.195 378.321 l 505.172 378.274 l 505.141 378.239 l 505.109 378.211
 l 505.078 378.176 l 505 378.121 l 504.961 378.106 l 504.914 378.078 l 504.859
 378.059 l 504.805 378.051 l 504.75 378.032 l 504.688 378.016 l 504.648 
378.016 l 504.617 378.004 l 504.586 378.004 l 504.547 377.996 l 504.469 
377.996 l 504.43 377.989 l 504.297 377.989 l 504.25 377.981 l 504.109 377.981
 l 503.75 377.981 503.375 377.981 503.375 377.324 c 503.375 376.977 503.617
 376.852 503.75 376.852 c 504.461 376.852 505.367 376.977 506.094 376.977
 c 507.027 376.977 508.051 376.852 508.957 376.852 c 509.199 376.852 509.504
 376.949 509.504 377.532 c 509.504 377.981 509.113 377.981 508.801 377.981
 c 508.191 377.981 507.457 377.981 507.457 378.348 c 507.457 378.516 507.652
 379.324 507.762 379.789 c 508.09 381.438 508.473 383.129 508.762 384.43
 c 509.09 383.821 509.934 382.602 511.57 382.602 c 511.57 383.469 l 509.645
 383.469 509.152 385.871 509.152 386.184 c 509.152 386.309 509.199 386.535
 509.223 386.66 c 510.59 392.93 l 512.172 395.34 513.539 395.797 514.406
 395.797 c 515.469 395.797 516.398 394.891 516.398 392.778 c 516.398 391.489
 515.797 388.309 514.977 386.489 c 514.297 384.965 512.969 383.469 511.57
 383.469 c 511.57 382.602 l 514.891 382.602 518.574 386.813 518.574 391.461
 c 518.574 395.117 516.359 396.668 514.492 396.668 c 512.797 396.668 511.348
 395.367 510.621 394.481 c 510.152 396.262 508.629 396.668 507.809 396.668
 c 506.746 396.668 506.094 395.852 505.656 395.02 c 505.109 393.953 504.68
 392.09 504.68 391.891 c 504.68 391.489 505.063 391.489 505.148 391.489 
c 505.523 391.489 505.547 391.586 505.742 392.43 c 506.152 394.246 506.676
 395.797 507.738 395.797 c 508.441 395.797 508.629 395.117 508.629 394.274
 c 508.629 393.926 508.582 393.524 508.543 393.332 c h
505.438 379.098 m f*
q 0.872705 0 0 1 0 509.023712 cm
579.162 -129.926 m 579.144 -130.004 l 579.126 -130.078 l 579.108 -130.156
 l 579.09 -130.219 l 579.073 -130.293 l 579.055 -130.355 l 579.028 -130.418
 l 579.01 -130.473 l 578.992 -130.523 l 578.965 -130.57 l 578.938 -130.625
 l 578.92 -130.668 l 578.885 -130.703 l 578.858 -130.75 l 578.822 -130.785
 l 578.786 -130.813 l 578.75 -130.848 l 578.661 -130.902 l 578.616 -130.918
 l 578.562 -130.945 l 578.5 -130.965 l 578.437 -130.973 l 578.374 -130.992
 l 578.303 -131.008 l 578.258 -131.008 l 578.222 -131.02 l 578.186 -131.02
 l 578.142 -131.027 l 578.052 -131.027 l 578.007 -131.035 l 577.855 -131.035
 l 577.801 -131.043 l 577.64 -131.043 l 577.228 -131.043 576.799 -131.043
 576.799 -131.699 c 576.799 -132.047 577.076 -132.172 577.228 -132.172 c
 578.043 -132.172 579.081 -132.047 579.914 -132.047 c 580.984 -132.047 582.157
 -132.172 583.195 -132.172 c 583.472 -132.172 583.822 -132.074 583.822 -131.492
 c 583.822 -131.043 583.374 -131.043 583.016 -131.043 c 582.318 -131.043
 581.476 -131.043 581.476 -130.676 c 581.476 -130.508 581.7 -129.699 581.825
 -129.234 c 582.201 -127.586 582.64 -125.895 582.971 -124.594 c 583.347 
-125.203 584.314 -126.422 586.189 -126.422 c 586.189 -125.555 l 583.983 
-125.555 583.419 -123.152 583.419 -122.84 c 583.419 -122.715 583.472 -122.488
 583.499 -122.363 c 585.066 -116.094 l 586.879 -113.684 588.445 -113.227
 589.439 -113.227 c 590.656 -113.227 591.722 -114.133 591.722 -116.246 c
 591.722 -117.535 591.032 -120.715 590.093 -122.535 c 589.314 -124.059 587.792
 -125.555 586.189 -125.555 c 586.189 -126.422 l 589.994 -126.422 594.215
 -122.211 594.215 -117.563 c 594.215 -113.906 591.677 -112.355 589.537 -112.355
 c 587.595 -112.355 585.934 -113.656 585.102 -114.543 c 584.565 -112.762
 582.819 -112.355 581.879 -112.355 c 580.662 -112.355 579.914 -113.172 579.413
 -114.004 c 578.786 -115.07 578.294 -116.934 578.294 -117.133 c 578.294 
-117.535 578.732 -117.535 578.831 -117.535 c 579.261 -117.535 579.287 -117.438
 579.511 -116.594 c 579.981 -114.777 580.581 -113.227 581.798 -113.227 c
 582.604 -113.227 582.819 -113.906 582.819 -114.75 c 582.819 -115.098 582.765
 -115.5 582.72 -115.691 c h
579.162 -129.926 m S Q
527.973 403.637 m 527.973 403.653 l 527.98 403.653 l 527.98 403.68 l 527.988
 403.692 l 527.988 403.699 l 527.996 403.715 l 527.996 403.735 l 528.004
 403.754 l 528.004 403.77 l 528.012 403.789 l 528.02 403.805 l 528.02 403.832
 l 528.027 403.852 l 528.035 403.895 l 528.043 403.93 l 528.051 403.957 
l 528.051 403.977 l 528.059 403.996 l 528.059 404.012 l 528.066 404.032 
l 528.066 404.067 l 528.074 404.074 l 528.074 404.102 l 528.082 404.11 l
 528.082 404.129 l 528.082 404.297 527.973 404.578 527.641 404.578 c 527.102
 404.578 524.844 404.324 524.156 404.254 c 523.938 404.227 523.563 404.199
 523.563 403.539 c 523.563 403.106 523.938 403.106 524.266 403.106 c 525.57
 403.106 525.57 402.883 525.57 402.633 c 525.57 402.418 525.516 402.219 
525.461 401.942 c 521.613 384.278 l 521.48 383.723 521.48 383.668 521.48
 383.594 c 521.48 383.129 521.809 382.602 522.414 382.602 c 522.719 382.602
 523.227 382.754 523.539 383.407 c 523.609 383.594 523.852 384.715 523.984
 385.371 c 524.625 388.157 l 524.695 388.621 524.977 389.805 525.047 390.27
 c 525.328 391.461 525.328 391.489 525.867 392.492 c 526.742 394.024 528.105
 395.797 530.23 395.797 c 531.754 395.797 531.84 394.356 531.84 393.61 c
 531.84 391.739 530.668 388.282 530.23 386.965 c 529.934 386.086 529.824
 385.809 529.824 385.27 c 529.824 383.621 531.02 382.602 532.402 382.602
 c 535.141 382.602 536.336 386.891 536.336 387.375 c 536.336 387.778 535.984
 387.778 535.898 387.778 c 535.516 387.778 535.484 387.602 535.383 387.25
 c 534.75 384.75 533.555 383.469 532.488 383.469 c 531.91 383.469 531.801
 383.899 531.801 384.563 c 531.801 385.27 531.949 385.684 532.441 387.09
 c 532.754 388.059 533.883 391.364 533.883 393.11 c 533.883 393.61 533.883
 394.93 532.863 395.824 c 532.402 396.235 531.621 396.668 530.34 396.668
 c 528.348 396.668 526.906 395.422 525.906 394.078 c h
527.973 403.637 m f*
q 0.872705 0 0 1 0 509.023712 cm
604.984 -105.387 m 604.984 -105.371 l 604.993 -105.371 l 604.993 -105.344
 l 605.002 -105.332 l 605.002 -105.324 l 605.011 -105.309 l 605.011 -105.289
 l 605.02 -105.27 l 605.02 -105.254 l 605.029 -105.234 l 605.038 -105.219
 l 605.038 -105.191 l 605.047 -105.172 l 605.056 -105.129 l 605.065 -105.094
 l 605.074 -105.066 l 605.074 -105.047 l 605.083 -105.027 l 605.083 -105.012
 l 605.092 -104.992 l 605.092 -104.957 l 605.101 -104.949 l 605.101 -104.922
 l 605.11 -104.914 l 605.11 -104.895 l 605.11 -104.727 604.984 -104.445 
604.604 -104.445 c 603.986 -104.445 601.399 -104.699 600.611 -104.77 c 600.361
 -104.797 599.931 -104.824 599.931 -105.484 c 599.931 -105.918 600.361 -105.918
 600.736 -105.918 c 602.231 -105.918 602.231 -106.141 602.231 -106.391 c
 602.231 -106.605 602.169 -106.805 602.106 -107.082 c 597.697 -124.746 l
 597.545 -125.301 597.545 -125.355 597.545 -125.43 c 597.545 -125.895 597.921
 -126.422 598.615 -126.422 c 598.964 -126.422 599.546 -126.27 599.904 -125.617
 c 599.985 -125.43 600.262 -124.309 600.414 -123.652 c 601.148 -120.867 
l 601.229 -120.402 601.551 -119.219 601.632 -118.754 c 601.954 -117.563 
601.954 -117.535 602.572 -116.531 c 603.574 -115 605.136 -113.227 607.571
 -113.227 c 609.317 -113.227 609.416 -114.668 609.416 -115.414 c 609.416
 -117.285 608.073 -120.742 607.571 -122.059 c 607.231 -122.938 607.106 -123.215
 607.106 -123.754 c 607.106 -125.402 608.476 -126.422 610.06 -126.422 c 
613.198 -126.422 614.567 -122.133 614.567 -121.648 c 614.567 -121.246 614.165
 -121.246 614.066 -121.246 c 613.627 -121.246 613.592 -121.422 613.475 -121.773
 c 612.75 -124.273 611.38 -125.555 610.159 -125.555 c 609.496 -125.555 609.371
 -125.125 609.371 -124.461 c 609.371 -123.754 609.541 -123.34 610.105 -121.934
 c 610.463 -120.965 611.756 -117.66 611.756 -115.914 c 611.756 -115.414 
611.756 -114.094 610.588 -113.199 c 610.06 -112.789 609.165 -112.355 607.697
 -112.355 c 605.414 -112.355 603.762 -113.602 602.616 -114.945 c h
604.984 -105.387 m S Q
507.301 239.297 m 511.195 239.297 l 512.105 239.297 512.559 239.297 512.559
 240.125 c 512.559 240.582 512.105 240.582 511.34 240.582 c 507.574 240.582
 l 508.52 245.305 l 508.711 246.168 509.348 249.098 509.621 249.598 c 510.031
 250.387 510.793 251.008 511.75 251.008 c 511.922 251.008 513.105 251.008
 513.969 250.254 c 511.977 250.102 511.523 248.649 511.523 248.028 c 511.523
 247.082 512.332 246.582 513.203 246.582 c 514.379 246.582 515.688 247.496
 515.688 249.067 c 515.688 250.965 513.594 251.91 511.75 251.91 c 510.203
 251.91 507.348 251.172 505.992 247.082 c 505.727 246.211 505.582 245.797
 504.5 240.582 c 501.379 240.582 l 500.508 240.582 500.016 240.582 500.016
 239.801 c 500.016 239.297 500.426 239.297 501.281 239.297 c 504.273 239.297
 l 500.863 222.973 l 500.051 218.961 499.289 215.188 496.922 215.188 c 496.742
 215.188 495.621 215.188 494.75 215.942 c 496.84 216.059 497.242 217.551
 497.242 218.172 c 497.242 219.121 496.434 219.625 495.559 219.625 c 494.387
 219.625 493.074 218.715 493.074 217.137 c 493.074 215.278 495.066 214.282
 496.922 214.282 c 499.414 214.282 501.234 216.723 502.043 218.297 c 503.488
 220.903 504.547 225.903 504.59 226.199 c h
507.301 239.297 m f*
4.8 w
q 1 0 0 -1 0 509.023712 cm
711.105 235.211 m 737.43 207.25 l S Q
Q Q
showpage
%%Trailer
end restore
%%EOF
